%YAML 1.1
%TAG !u! tag:unity3d.com,2011:
--- !u!114 &11400000
MonoBehaviour:
  m_ObjectHideFlags: 0
  m_PrefabParentObject: {fileID: 0}
  m_PrefabInternal: {fileID: 0}
  m_GameObject: {fileID: 0}
  m_Enabled: 1
  m_EditorHideFlags: 0
  m_Script: {fileID: 11500000, guid: 48c4aa17f89b11d4596f9f9d5dc89489, type: 3}
  m_Name: CustomProjectSetting
  m_EditorClassIdentifier: 
  language: {fileID: 11400000, guid: 44bc3234814fc9143a59ea118ab7fc1a, type: 2}
