%YAML 1.1
%TAG !u! tag:unity3d.com,2011:
--- !u!114 &11400000
MonoBehaviour:
  m_ObjectHideFlags: 0
  m_PrefabParentObject: {fileID: 0}
  m_PrefabInternal: {fileID: 0}
  m_GameObject: {fileID: 0}
  m_Enabled: 1
  m_EditorHideFlags: 0
  m_Script: {fileID: 11500000, guid: 2f183272568e6f94382e3b59c0de76cd, type: 3}
  m_Name: "3D\u30C0\u30F3\u30B8\u30E7\u30F3.project"
  m_EditorClassIdentifier: 
  excelList: []
  chapterDataList:
  - chapterName: Boot
    excelList:
    - {fileID: 102900000, guid: cbbcc8069f817644697f3ce4edbedc08, type: 3}
    excelDir: {fileID: 0}
  checkWaitType: 0
  checkWhiteSpaceEndOfCell: 1
  checkTextCount: 1
  scenarios: {fileID: 11400000, guid: ffae5efa331bd7c489d24d6e6e465886, type: 2}
  autoImportType: 0
  convertPath: 
  convertVersion: 0
  isAutoUpdateVersionAfterConvert: 0
  isAutoConvertOnImport: 0
  customInportSpriteFolders:
  - {fileID: 102900000, guid: d54754c905a56c84da8872bc1118850f, type: 3}
  - {fileID: 102900000, guid: 2c5936e60317fba469a293c382a8236c, type: 3}
  - {fileID: 102900000, guid: 9e4451200e633cc4c902cb84fdfe00e3, type: 3}
  - {fileID: 102900000, guid: 802f1674fec0db94881fc22e830bf8b8, type: 3}
  - {fileID: 102900000, guid: aaa72b3da7f93f440bbcc26fa67a69c1, type: 3}
  customInportAudioFolders:
  - {fileID: 102900000, guid: e4c7c8d4550b05140852892fdbe6409b, type: 3}
  - {fileID: 102900000, guid: c6eca0b328cb59b4283e5beb9ef47693, type: 3}
  - {fileID: 102900000, guid: 79533f212abbb814bb0688c1ad393ac3, type: 3}
  - {fileID: 102900000, guid: ea58b465079158649a7bc4d4bb967f73, type: 3}
  customInportMovieFolders: []
  quickImport: 0
  parseFormula: 0
