%YAML 1.1
%TAG !u! tag:unity3d.com,2011:
--- !u!114 &11400000
MonoBehaviour:
  m_ObjectHideFlags: 8
  m_PrefabParentObject: {fileID: 0}
  m_PrefabInternal: {fileID: 0}
  m_GameObject: {fileID: 0}
  m_Enabled: 1
  m_EditorHideFlags: 0
  m_Script: {fileID: 11500000, guid: 9856eecfcd6b8df42ac2ebd73cc36dff, type: 3}
  m_Name: "3D\u30C0\u30F3\u30B8\u30E7\u30F3.book"
  m_EditorClassIdentifier: 
  importVersion: 0
  importGridList:
  - rows:
    - rowIndex: 0
      debugIndex: 0
      strings:
      - Command
      - Arg1
      - Arg2
      - Arg3
      - Arg4
      - Arg5
      - Arg6
      - WaitType
      - Text
      - PageCtrl
      - Voice
      - WindowType
      isEmpty: 0
      isCommentOut: 0
      debugInfo: 
    - rowIndex: 1
      debugIndex: 1
      strings:
      - "*\u30AA\u30FC\u30D7\u30CB\u30F3\u30B0"
      isEmpty: 0
      isCommentOut: 0
      debugInfo: 
    - rowIndex: 2
      debugIndex: 2
      strings:
      - 
      - 
      - 
      - 
      - 
      - 
      - 
      - 
      - "\u3053\u306ERPG\u306F3D\u30C0\u30F3\u30B8\u30E7\u30F3RPG\u3067\u3059\u3002"
      isEmpty: 0
      isCommentOut: 0
      debugInfo: 
    - rowIndex: 3
      debugIndex: 3
      strings:
      - 
      - 
      - 
      - 
      - 
      - 
      - 
      - 
      - "\u5730\u56F3\u3092\u57CB\u3081\u306A\u304C\u3089\u30C0\u30F3\u30B8\u30E7\u30F3\u3092\u63A2\u7D22\u3057\u3001\n\u8272\u3005\u306A\u4ED5\u639B\u3051\u3092\u89E3\u304D\u3001\u30C0\u30F3\u30B8\u30E7\u30F3\u3092\u653B\u7565\u3057\u3066\u3044\u304F\n\u30B2\u30FC\u30E0\u3067\u3059\u3002"
      isEmpty: 0
      isCommentOut: 0
      debugInfo: 
    - rowIndex: 4
      debugIndex: 4
      strings:
      - 
      - 
      - 
      - 
      - 
      - 
      - 
      - 
      - "\u3053\u308C\u306F\u958B\u767A\u9014\u4E2D\u306E\u4F53\u9A13\u7248\u3068\u3044\u3046\u3053\u3068\u3067\n\u8272\u3005\u306A\u6A5F\u80FD\u304C\u672A\u5B9F\u88C5\u3067\u3059\u304C\u3001\u96F0\u56F2\u6C17\u3060\u3051\u3067\u3082\n\u304A\u697D\u3057\u307F\u3044\u305F\u3060\u3051\u305F\u3089\u306A\u3068\u601D\u3044\u307E\u3059\u3002"
      isEmpty: 0
      isCommentOut: 0
      debugInfo: 
    - rowIndex: 5
      debugIndex: 5
      strings:
      - 
      - 
      - 
      - 
      - 
      - 
      - 
      - 
      - "\u305D\u308C\u3067\u306F\u3001\u30B2\u30FC\u30E0\u306E\u4E16\u754C\u306B\u3069\u3046\u305E\u3002"
      isEmpty: 0
      isCommentOut: 0
      debugInfo: 
    - rowIndex: 6
      debugIndex: 6
      strings:
      - EndScenario
      isEmpty: 0
      isCommentOut: 0
      debugInfo: 
    - rowIndex: 7
      debugIndex: 7
      strings:
      - "*\u306F\u3058\u307E\u308A"
      isEmpty: 0
      isCommentOut: 0
      debugInfo: 
    - rowIndex: 8
      debugIndex: 8
      strings:
      - 
      - 
      - 
      - 
      - 
      - 
      - 
      - 
      - "\u30A2\u30EC\u30B9\u30BF\n\u300C\u3055\u3042\u3001\u3044\u3063\u304F\u3088\u30FC\uFF01\u300D"
      isEmpty: 0
      isCommentOut: 0
      debugInfo: 
    - rowIndex: 9
      debugIndex: 9
      strings:
      - 
      - 
      - 
      - 
      - 
      - 
      - 
      - 
      - "\u30A2\u30EC\u30B9\u30BF\n\u300C\u3093\uFF1F\u524D\u306B\u77F3\u677F\u304C\u3042\u308B\u3088\u3002\u8AAD\u3093\u3067\u307F\u3088\u3046\u3002\u300D"
      isEmpty: 0
      isCommentOut: 0
      debugInfo: 
    - rowIndex: 10
      debugIndex: 10
      strings:
      - 
      - 
      - 
      - 
      - 
      - 
      - 
      - 
      - "\u4ECA\u306F\u81EA\u5206\u3067\u8ABF\u3079\u308B\u3053\u3068\u306F\u51FA\u6765\u307E\u305B\u3093\u304C\u3001\u6307\u5B9A\u306E\u5834\u6240\u306B\u7ACB\u3064\u3068\n\u30A4\u30D9\u30F3\u30C8\u304C\u518D\u751F\u3055\u308C\u308B\u3088\u3046\u306B\u306A\u3063\u3066\u3044\u307E\u3059\u3002"
      isEmpty: 0
      isCommentOut: 0
      debugInfo: 
    - rowIndex: 11
      debugIndex: 11
      strings:
      - EndScenario
      isEmpty: 0
      isCommentOut: 0
      debugInfo: 
    - rowIndex: 12
      debugIndex: 12
      strings:
      - "*\u8ABF\u3079\u3066\u5192\u967A\u306E\u52A9\u3051\u306B"
      isEmpty: 0
      isCommentOut: 0
      debugInfo: 
    - rowIndex: 13
      debugIndex: 13
      strings:
      - 
      - 
      - 
      - 
      - 
      - 
      - 
      - 
      - "\u5192\u967A\u8005\u9054\u3088\u3001\u3053\u306E\u8FF7\u5BAE\u306B\u306F\u5371\u967A\u304C\u3044\u3063\u3071\u3044\u3060\u3002"
      isEmpty: 0
      isCommentOut: 0
      debugInfo: 
    - rowIndex: 14
      debugIndex: 14
      strings:
      - 
      - 
      - 
      - 
      - 
      - 
      - 
      - 
      - "\u3053\u306E\u30E1\u30C3\u30BB\u30FC\u30B8\u306E\u3088\u3046\u306B\u8ABF\u3079\u3089\u308C\u308B\u3082\u306E\u306F\u30B7\u30D5\u30C8\u30AD\u30FC\u3092\n\u62BC\u3059\u3053\u3068\u3067\u8ABF\u3079\u308B\u3053\u3068\u304C\u3067\u304D\u308B\u3002\u5192\u967A\u306E\u52A9\u3051\u306B\u306A\u308B\u3060\u308D\u3046\u3002\n\uFF5E\u5148\u99C6\u3051\u306E\u9B54\u9053\u58EB\uFF5E"
      isEmpty: 0
      isCommentOut: 0
      debugInfo: 
    - rowIndex: 15
      debugIndex: 15
      strings:
      - 
      - 
      - 
      - 
      - 
      - 
      - 
      - 
      - "\u30A2\u30EC\u30B9\u30BF\n\u300C\u5148\u306B\u3053\u306E\u8FF7\u5BAE\u306B\u5165\u3063\u305F\u4EBA\u304C\u3044\u308B\u3093\u3060\u306D\u3001\n\u8CA0\u3051\u306A\u3044\u3093\u3060\u304B\u3089\uFF01\u300D"
      isEmpty: 0
      isCommentOut: 0
      debugInfo: 
    - rowIndex: 16
      debugIndex: 16
      strings:
      - EndScenario
      isEmpty: 0
      isCommentOut: 0
      debugInfo: 
    - rowIndex: 17
      debugIndex: 17
      strings:
      - "*\u30A8\u30EA\u30CA\u30A4\u30D9\u30F3\u30C8"
      isEmpty: 0
      isCommentOut: 0
      debugInfo: 
    - rowIndex: 18
      debugIndex: 18
      strings:
      - 
      - 
      - 
      - 
      - 
      - 
      - 
      - 
      - "\u30A2\u30EC\u30B9\u30BF\u306E\u8868\u60C5\u306F\u30A2\u30EC\u30B9\u30BF\u306E\u73FE\u5728\u306E\u4F53\u529B\u3092\u8868\u3057\u307E\u3059\u3002"
      isEmpty: 0
      isCommentOut: 0
      debugInfo: 
    - rowIndex: 19
      debugIndex: 19
      strings:
      - 
      - 
      - 
      - 
      - 
      - 
      - 
      - 
      - "\u6226\u95D8\u4E2D\u9854\u8272\u304C\u60AA\u304F\u306A\u3063\u305F\u3089\u30A2\u30A4\u30C6\u30E0\u3084\u9B54\u6CD5\u3092\u4F7F\u3063\u3066\n\u56DE\u5FA9\u3055\u305B\u307E\u3057\u3087\u3046\u3002"
      isEmpty: 0
      isCommentOut: 0
      debugInfo: 
    - rowIndex: 20
      debugIndex: 20
      strings:
      - EndScenario
      isEmpty: 0
      isCommentOut: 0
      debugInfo: 
    - rowIndex: 21
      debugIndex: 21
      strings:
      - "*\u30B9\u30A4\u30C3\u30C1\u3092\u8ABF\u3079\u3088"
      isEmpty: 0
      isCommentOut: 0
      debugInfo: 
    - rowIndex: 22
      debugIndex: 22
      strings:
      - 
      - 
      - 
      - 
      - 
      - 
      - 
      - 
      - "\u8FF7\u5BAE\u306F\u30D5\u30ED\u30A2\u306E\u9685\u3005\u307E\u3067\u8ABF\u3079\u3064\u304F\u305B\uFF01\n\u8272\u3005\u306A\u4ED5\u639B\u3051\u304C\u5F85\u3061\u53D7\u3051\u3066\u3044\u308B\u305E\u3002\n\uFF5E\u5148\u99C6\u3051\u306E\u9B54\u5263\u58EB\uFF5E"
      isEmpty: 0
      isCommentOut: 0
      debugInfo: 
    - rowIndex: 23
      debugIndex: 23
      strings:
      - EndScenario
      isEmpty: 0
      isCommentOut: 0
      debugInfo: 
    - rowIndex: 24
      debugIndex: 24
      strings:
      - "*\u5B9D\u7BB11+\u30E1\u30C3\u30BB\u30FC\u30B8"
      isEmpty: 0
      isCommentOut: 0
      debugInfo: 
    - rowIndex: 25
      debugIndex: 25
      strings:
      - 
      - 
      - 
      - 
      - 
      - 
      - 
      - 
      - "\u4EE3\u8868\n\u300C\u5B9D\u7BB1\u3092\u7F6E\u3053\u3046\u3068\u3057\u305F\u3051\u3069\u3001\u6642\u9593\u304C\u306A\u304F\u306A\u3063\u305F\u3088\u30FC\n\u3000\u308F\uFF5E\uFF5E\u3093\uFF01"
      isEmpty: 0
      isCommentOut: 0
      debugInfo: 
    - rowIndex: 26
      debugIndex: 26
      strings:
      - EndScenario
      isEmpty: 0
      isCommentOut: 0
      debugInfo: 
    - rowIndex: 27
      debugIndex: 27
      strings:
      - "*\u30D2\u30D3\u306E\u5165\u3063\u305F\u58C1\u521D\u56DE"
      isEmpty: 0
      isCommentOut: 0
      debugInfo: 
    - rowIndex: 28
      debugIndex: 28
      strings:
      - 
      - 
      - 
      - 
      - 
      - 
      - 
      - 
      - "\u30A2\u30EC\u30B9\u30BF\n\u300C\u3042\u308C\u3001\u3053\u306E\u58C1\u30D2\u30D3\u304C\u5165\u3063\u3066\u308B\u3002\n\u3000\u58CA\u305B\u305D\u3046\u304B\u3082\u30FB\u30FB\u30FB\u3002\u300D(\u58CA\u305B\u307E\u305B\u3093)"
      isEmpty: 0
      isCommentOut: 0
      debugInfo: 
    - rowIndex: 29
      debugIndex: 29
      strings:
      - EndScenario
      isEmpty: 0
      isCommentOut: 0
      debugInfo: 
    - rowIndex: 30
      debugIndex: 30
      strings:
      - "*\u30D2\u30D3\u306E\u58C1\u58CA\u3057\u305F"
      isEmpty: 0
      isCommentOut: 0
      debugInfo: 
    - rowIndex: 31
      debugIndex: 31
      strings:
      - 
      - 
      - 
      - 
      - 
      - 
      - 
      - 
      - "\u307C\u308D\u307C\u308D\u30FB\u30FB\u30FB\u3002\n\u58C1\u304C\u5D29\u308C\u3066\u4E2D\u304B\u3089\u30A2\u30A4\u30C6\u30E0\u304C\u51FA\u3066\u304D\u305F\u3002"
      isEmpty: 0
      isCommentOut: 0
      debugInfo: 
    - rowIndex: 32
      debugIndex: 32
      strings:
      - EndScenario
      isEmpty: 0
      isCommentOut: 0
      debugInfo: 
    - rowIndex: 33
      debugIndex: 33
      strings:
      - "*\u9053\u306B\u8FF7\u3046\u3088"
      isEmpty: 0
      isCommentOut: 0
      debugInfo: 
    - rowIndex: 34
      debugIndex: 34
      strings:
      - 
      - 
      - 
      - 
      - 
      - 
      - 
      - 
      - "\u30A2\u30EC\u30B9\u30BF\n\u300C\u3046\u3080\u3080\u3001\u9053\u304C\u5165\u308A\u7D44\u3093\u3067\u3044\u3066\u8FF7\u3044\u305D\u3046\u3060\u30FB\u30FB\u30FB\u3002\u300D"
      isEmpty: 0
      isCommentOut: 0
      debugInfo: 
    - rowIndex: 35
      debugIndex: 35
      strings:
      - 
      - 
      - 
      - 
      - 
      - 
      - 
      - 
      - "\u30A2\u30EC\u30B9\u30BF\n\u300C\u305D\u3046\u3060\u3001\u6B69\u3044\u305F\u9053\u3092\u8A18\u9332\u3059\u308B\u5730\u56F3\u3092\u6301\u3063\u3066\u304D\u305F\u3093\u3060\u3063\u305F\u3002\n\u3000\u3053\u307E\u3081\u306B\u78BA\u8A8D\u3057\u306A\u304C\u3089\u9032\u3082\u3046\u3002\u300D"
      isEmpty: 0
      isCommentOut: 0
      debugInfo: 
    - rowIndex: 36
      debugIndex: 36
      strings:
      - EndScenario
      isEmpty: 0
      isCommentOut: 0
      debugInfo: 
    - rowIndex: 37
      debugIndex: 37
      strings:
      - "*\u30B9\u30A4\u30C3\u30C1\u521D\u56DE"
      isEmpty: 0
      isCommentOut: 0
      debugInfo: 
    - rowIndex: 38
      debugIndex: 38
      strings:
      - 
      - 
      - 
      - 
      - 
      - 
      - 
      - 
      - "\u30A2\u30EC\u30B9\u30BF\n\u300C\u3042\u308C\u3001\u30B9\u30A4\u30C3\u30C1\u304C\u3042\u308B\u3088\u3002\n\u3000\u62BC\u3057\u305F\u3089\u3069\u3046\u306A\u308B\u3093\u3060\u308D\u3046\u30FB\u30FB\u30FB\u3002\u300D"
      isEmpty: 0
      isCommentOut: 0
      debugInfo: 
    - rowIndex: 39
      debugIndex: 39
      strings:
      - EndScenario
      isEmpty: 0
      isCommentOut: 0
      debugInfo: 
    - rowIndex: 40
      debugIndex: 40
      strings:
      - "*\u30B9\u30A4\u30C3\u30C1\u51E6\u7406"
      isEmpty: 0
      isCommentOut: 0
      debugInfo: 
    - rowIndex: 41
      debugIndex: 41
      strings:
      - 
      - 
      - 
      - 
      - 
      - 
      - 
      - 
      - "\u306C\u308B\u307D"
      isEmpty: 0
      isCommentOut: 0
      debugInfo: 
    - rowIndex: 42
      debugIndex: 42
      strings:
      - EndScenario
      isEmpty: 0
      isCommentOut: 0
      debugInfo: 
    - rowIndex: 43
      debugIndex: 43
      strings:
      - "*1F\u5192\u967A\u8005A"
      isEmpty: 0
      isCommentOut: 0
      debugInfo: 
    - rowIndex: 44
      debugIndex: 44
      strings:
      - 
      - 
      - 
      - 
      - 
      - 
      - 
      - 
      - "\u306C\u308B\u307D"
      isEmpty: 0
      isCommentOut: 0
      debugInfo: 
    - rowIndex: 45
      debugIndex: 45
      strings:
      - EndScenario
      isEmpty: 0
      isCommentOut: 0
      debugInfo: 
    - rowIndex: 46
      debugIndex: 46
      strings:
      - "*\u5B9D\u7BB12+\u30E1\u30C3\u30BB\u30FC\u30B8"
      isEmpty: 0
      isCommentOut: 0
      debugInfo: 
    - rowIndex: 47
      debugIndex: 47
      strings:
      - 
      - 
      - 
      - 
      - 
      - 
      - 
      - 
      - "\u306C\u308B\u307D"
      isEmpty: 0
      isCommentOut: 0
      debugInfo: 
    - rowIndex: 48
      debugIndex: 48
      strings:
      - EndScenario
      isEmpty: 0
      isCommentOut: 0
      debugInfo: 
    - rowIndex: 49
      debugIndex: 49
      strings:
      - "*1F\u5192\u967A\u8005B"
      isEmpty: 0
      isCommentOut: 0
      debugInfo: 
    - rowIndex: 50
      debugIndex: 50
      strings:
      - 
      - 
      - 
      - 
      - 
      - 
      - 
      - 
      - "\u306C\u308B\u307D"
      isEmpty: 0
      isCommentOut: 0
      debugInfo: 
    - rowIndex: 51
      debugIndex: 51
      strings:
      - EndScenario
      isEmpty: 0
      isCommentOut: 0
      debugInfo: 
    - rowIndex: 52
      debugIndex: 52
      strings:
      - "*\u9685\u3005\u307E\u3067\u8ABF\u3079\u3088"
      isEmpty: 0
      isCommentOut: 0
      debugInfo: 
    - rowIndex: 53
      debugIndex: 53
      strings:
      - 
      - 
      - 
      - 
      - 
      - 
      - 
      - 
      - "\u306C\u308B\u307D"
      isEmpty: 0
      isCommentOut: 0
      debugInfo: 
    - rowIndex: 54
      debugIndex: 54
      strings:
      - EndScenario
      isEmpty: 0
      isCommentOut: 0
      debugInfo: 
    name: "Assets/3D\u30C0\u30F3\u30B8\u30E7\u30F3/3D\u30C0\u30F3\u30B8\u30E7\u30F3.xls:Start"
    type: 1
    textLength: 1028
    headerRow: 0
    entityIndexTbl: 
    entityDataList: []
