,LV,HP,MP,STR,AGI,INT,VIT,LUK,CRI,EXP,EXP_ALL,ATR
アレスタ,1,15,15,6,6,5,3,5,5,11,11,1
アレスタ,2,16,15,7,7,6,4,14,15,16,27,1
アレスタ,3,17,15,8,8,7,5,21,22,26,53,1
アレスタ,4,18,15,9,9,9,5,26,27,42,95,1
アレスタ,5,19,15,10,11,10,6,30,32,66,161,1
アレスタ,6,21,16,11,12,12,7,33,36,98,259,1
アレスタ,7,22,16,13,14,13,9,36,40,140,399,1
アレスタ,8,24,17,14,15,15,10,39,44,191,590,1
アレスタ,9,26,17,16,17,17,11,42,47,253,843,1
アレスタ,10,28,18,18,19,19,12,44,50,326,1169,1
アレスタ,11,30,18,20,21,21,14,46,53,411,1580,1
アレスタ,12,32,19,22,23,24,15,48,56,509,2089,1
アレスタ,13,34,20,25,25,26,17,50,59,619,2708,1
アレスタ,14,36,21,27,27,29,19,52,61,743,3451,1
アレスタ,15,38,22,30,29,31,20,53,64,881,4332,1
アレスタ,16,41,24,32,31,34,22,55,66,1034,5366,1
アレスタ,17,43,25,35,33,37,24,57,68,1202,6568,1
アレスタ,18,46,27,38,35,39,26,58,70,1385,7953,1
アレスタ,19,48,29,41,37,42,28,59,72,1584,9537,1
アレスタ,20,51,30,45,39,45,30,61,74,1799,11336,1
アレスタ,21,53,32,48,42,48,32,62,76,2031,13367,1
アレスタ,22,56,35,51,44,51,34,63,78,2280,15647,1
アレスタ,23,59,37,55,46,55,36,64,80,2547,18194,1
アレスタ,24,62,39,59,49,58,38,66,82,2832,21026,1
アレスタ,25,65,42,62,51,61,41,67,84,3135,24161,1
アレスタ,26,68,45,66,53,65,43,68,85,3457,27618,1
アレスタ,27,71,48,70,56,68,45,69,87,3798,31416,1
アレスタ,28,74,51,74,58,72,47,70,89,4159,35575,1
アレスタ,29,77,54,79,61,75,50,71,90,4539,40114,1
アレスタ,30,81,57,83,63,79,52,72,92,4940,45054,1
アレスタ,31,84,61,87,66,83,55,73,93,5361,50415,1
アレスタ,32,87,65,92,68,86,57,74,95,5803,56218,1
アレスタ,33,91,69,96,71,90,60,75,96,6266,62484,1
アレスタ,34,94,73,101,74,94,62,76,98,6751,69235,1
アレスタ,35,98,77,106,76,98,65,77,99,7257,76492,1
アレスタ,36,101,82,111,79,102,68,77,101,7786,84278,1
アレスタ,37,105,87,116,82,106,71,78,102,8337,92615,1
アレスタ,38,109,92,121,84,110,73,79,104,8911,101526,1
アレスタ,39,112,97,126,87,115,76,80,105,9509,111035,1
アレスタ,40,116,102,131,90,119,79,81,106,10129,121164,1
アレスタ,41,120,108,136,92,123,82,82,108,10774,131938,1
アレスタ,42,124,113,142,95,127,85,82,109,11442,143380,1
アレスタ,43,128,119,147,98,132,88,83,110,12135,155515,1
アレスタ,44,132,125,153,101,136,91,84,111,12852,168367,1
アレスタ,45,136,132,159,104,141,94,85,113,13594,181961,1
アレスタ,46,140,138,165,107,145,97,85,114,14361,196322,1
アレスタ,47,144,145,170,109,150,100,86,115,15154,211476,1
アレスタ,48,148,152,176,112,155,103,87,116,15973,227449,1
アレスタ,49,152,160,183,115,159,106,87,117,16817,244266,1
アレスタ,50,156,167,189,118,164,109,88,118,17688,261954,1
アレスタ,51,161,175,195,121,169,112,89,120,18585,280539,1
アレスタ,52,165,183,201,124,174,115,89,121,19509,300048,1
アレスタ,53,169,191,208,127,179,119,90,122,20460,320508,1
アレスタ,54,174,199,214,130,184,122,91,123,21438,341946,1
アレスタ,55,178,208,221,133,189,125,91,124,22444,364390,1
アレスタ,56,183,217,227,136,194,129,92,125,23478,387868,1
アレスタ,57,187,226,234,139,199,132,92,126,24539,412407,1
アレスタ,58,192,235,241,142,204,136,93,127,25629,438036,1
アレスタ,59,196,245,248,145,209,139,94,128,26748,464784,1
アレスタ,60,201,255,255,148,214,142,94,129,27895,492679,1
アレスタ,61,3,4,3,2,1,3,0,2,5699,498378,1
アレスタ,62,2,3,2,2,1,2,0,2,5699,504077,1
アレスタ,63,2,4,2,2,1,2,0,2,479607,983684,1
,,5461,5143,6032,4120,5426,3604,4035,5185,780000,,
エリナ,1,14,20,24,6,5,5,7,8,9,9,1
エリナ,2,17,34,32,6,5,7,9,12,89,98,1
エリナ,3,21,43,39,7,5,9,11,16,194,292,1
エリナ,4,24,51,44,8,6,11,13,20,317,609,1
エリナ,5,28,57,49,9,6,14,15,24,457,1066,1
エリナ,6,31,63,53,9,7,16,17,28,612,1678,1
エリナ,7,35,68,57,10,8,18,19,32,780,2458,1
エリナ,8,38,72,61,11,9,21,21,36,961,3419,1
エリナ,9,42,76,64,11,10,23,23,40,1153,4572,1
エリナ,10,45,80,67,12,11,26,25,44,1356,5928,1
エリナ,11,49,83,70,13,12,28,27,48,1570,7498,1
エリナ,12,52,86,73,13,14,31,29,52,1794,9292,1
エリナ,13,56,90,76,14,15,33,31,56,2027,11319,1
エリナ,14,59,92,79,15,17,36,33,60,2270,13589,1
エリナ,15,63,95,81,16,19,38,35,64,2521,16110,1
エリナ,16,66,98,84,16,21,41,37,68,2781,18891,1
エリナ,17,70,100,86,17,23,44,39,72,3049,21940,1
エリナ,18,73,103,89,18,25,46,41,76,3325,25265,1
エリナ,19,77,105,91,18,28,49,43,80,3609,28874,1
エリナ,20,80,107,93,19,30,52,45,84,3900,32774,1
エリナ,21,84,110,96,20,33,54,47,88,4199,36973,1
エリナ,22,87,112,98,20,36,57,49,92,4505,41478,1
エリナ,23,91,114,100,21,39,60,51,96,4818,46296,1
エリナ,24,94,116,102,22,42,62,53,100,5138,51434,1
エリナ,25,98,118,104,23,45,65,55,104,5465,56899,1
エリナ,26,101,119,106,23,49,68,57,108,5798,62697,1
エリナ,27,105,121,108,24,52,71,59,112,6138,68835,1
エリナ,28,108,123,110,25,56,73,61,116,6484,75319,1
エリナ,29,112,125,112,25,60,76,63,120,6836,82155,1
エリナ,30,115,126,114,26,64,79,65,124,7195,89350,1
エリナ,31,119,128,115,27,68,82,67,128,7559,96909,1
エリナ,32,122,130,117,27,73,84,69,132,7930,104839,1
エリナ,33,126,131,119,28,77,87,71,136,8306,113145,1
エリナ,34,129,133,121,29,82,90,73,140,8688,121833,1
エリナ,35,133,134,122,30,86,93,75,144,9076,130909,1
エリナ,36,136,136,124,30,91,96,77,148,9469,140378,1
エリナ,37,140,137,126,31,96,99,79,152,9868,150246,1
エリナ,38,143,139,127,32,102,101,81,156,10272,160518,1
エリナ,39,147,140,129,32,107,104,83,160,10681,171199,1
エリナ,40,150,141,130,33,112,107,85,164,11096,182295,1
エリナ,41,154,143,132,34,118,110,87,168,11516,193811,1
エリナ,42,157,144,134,34,124,113,89,172,11941,205752,1
エリナ,43,161,145,135,35,130,116,91,176,12372,218124,1
エリナ,44,164,147,137,36,136,119,93,180,12807,230931,1
エリナ,45,168,148,138,37,142,122,95,184,13247,244178,1
エリナ,46,171,149,140,37,149,124,97,188,13692,257870,1
エリナ,47,175,150,141,38,155,127,99,192,14142,272012,1
エリナ,48,178,152,143,39,162,130,101,196,14597,286609,1
エリナ,49,182,153,144,39,169,133,103,200,15057,301666,1
エリナ,50,185,154,145,40,176,136,105,204,15521,317187,1
エリナ,51,189,155,147,41,183,139,107,208,15990,333177,1
エリナ,52,192,156,148,41,190,142,109,212,16464,349641,1
エリナ,53,196,157,150,42,198,145,111,216,16942,366583,1
エリナ,54,199,159,151,43,206,148,113,220,17425,384008,1
エリナ,55,203,160,152,44,213,151,115,224,17912,401920,1
エリナ,56,206,161,154,44,221,154,117,228,18404,420324,1
エリナ,57,210,162,155,45,229,157,119,232,18900,439224,1
エリナ,58,213,163,156,46,238,160,121,236,19400,458624,1
エリナ,59,217,164,158,46,246,163,123,240,19905,478529,1
エリナ,60,220,165,159,47,255,166,125,244,20414,498943,1
エリナ,61,3,4,3,2,1,3,0,2,5699,504642,1
エリナ,62,2,3,2,2,1,2,0,2,5699,510341,1
エリナ,63,2,4,2,2,1,2,0,2,479607,989948,1
,,7027,7154,6518,1590,5289,4918,3960,7566,780000,,
ペテル,1,15,2,4,45,2,10,10,6,90,90,1
ペテル,2,29,3,5,58,2,10,13,7,307,397,1
ペテル,3,41,4,6,67,3,12,16,8,536,933,1
ペテル,4,50,5,7,75,3,13,18,9,773,1706,1
ペテル,5,58,6,8,81,3,15,20,11,1016,2722,1
ペテル,6,66,7,10,87,3,16,23,12,1264,3986,1
ペテル,7,73,8,11,92,4,18,25,13,1516,5502,1
ペテル,8,79,10,13,97,4,20,26,15,1771,7273,1
ペテル,9,85,11,15,101,5,23,28,16,2030,9303,1
ペテル,10,91,13,17,105,5,25,30,18,2292,11595,1
ペテル,11,96,15,19,109,6,27,32,19,2556,14151,1
ペテル,12,101,17,21,113,6,30,33,21,2823,16974,1
ペテル,13,106,18,23,117,7,32,35,22,3092,20066,1
ペテル,14,111,20,25,120,7,35,37,24,3363,23429,1
ペテル,15,116,22,27,123,8,38,38,26,3636,27065,1
ペテル,16,120,24,30,126,8,41,40,27,3911,30976,1
ペテル,17,124,27,32,129,9,44,41,29,4188,35164,1
ペテル,18,128,29,35,132,10,47,43,31,4466,39630,1
ペテル,19,133,31,37,135,10,50,44,32,4746,44376,1
ペテル,20,137,33,40,138,11,54,46,34,5027,49403,1
ペテル,21,140,36,42,140,12,57,47,36,5310,54713,1
ペテル,22,144,38,45,143,12,61,49,38,5594,60307,1
ペテル,23,148,41,48,145,13,64,50,39,5879,66186,1
ペテル,24,151,43,51,148,14,68,51,41,6166,72352,1
ペテル,25,155,46,54,150,15,72,53,43,6454,78806,1
ペテル,26,158,48,57,152,15,75,54,45,6743,85549,1
ペテル,27,162,51,60,154,16,79,55,47,7033,92582,1
ペテル,28,165,54,63,157,17,83,57,49,7324,99906,1
ペテル,29,168,57,66,159,18,87,58,50,7616,107522,1
ペテル,30,172,60,70,161,18,91,59,52,7909,115431,1
ペテル,31,175,62,73,163,19,95,60,54,8203,123634,1
ペテル,32,178,65,76,165,20,100,62,56,8498,132132,1
ペテル,33,181,68,80,167,21,104,63,58,8794,140926,1
ペテル,34,184,71,83,169,22,108,64,60,9091,150017,1
ペテル,35,187,74,87,171,23,113,65,62,9389,159406,1
ペテル,36,190,78,90,173,24,117,66,64,9688,169094,1
ペテル,37,193,81,94,175,25,122,68,66,9987,179081,1
ペテル,38,196,84,98,176,25,126,69,68,10288,189369,1
ペテル,39,199,87,101,178,26,131,70,70,10589,199958,1
ペテル,40,201,91,105,180,27,135,71,72,10891,210849,1
ペテル,41,204,94,109,182,28,140,72,74,11193,222042,1
ペテル,42,207,97,113,183,29,145,73,76,11497,233539,1
ペテル,43,210,101,117,185,30,150,75,78,11801,245340,1
ペテル,44,212,104,121,187,31,155,76,80,12105,257445,1
ペテル,45,215,108,125,188,32,160,77,82,12411,269856,1
ペテル,46,217,111,129,190,33,165,78,84,12717,282573,1
ペテル,47,220,115,133,192,34,170,79,86,13024,295597,1
ペテル,48,222,118,137,193,35,175,80,88,13331,308928,1
ペテル,49,225,122,141,195,36,181,81,90,13639,322567,1
ペテル,50,227,126,145,196,37,186,82,92,13948,336515,1
ペテル,51,230,129,150,198,38,191,83,95,14258,350773,1
ペテル,52,232,133,154,199,39,196,84,97,14568,365341,1
ペテル,53,235,137,158,201,41,202,86,99,14878,380219,1
ペテル,54,237,141,163,202,42,207,87,101,15189,395408,1
ペテル,55,240,145,167,204,43,213,88,103,15501,410909,1
ペテル,56,242,149,172,205,44,219,89,105,15813,426722,1
ペテル,57,244,153,176,207,45,224,90,107,16126,442848,1
ペテル,58,247,157,181,208,46,230,91,110,16440,459288,1
ペテル,59,249,161,185,209,47,236,92,112,16754,476042,1
ペテル,60,251,165,190,211,48,241,93,114,17068,493110,1
ペテル,61,3,4,3,2,1,3,0,2,5699,498809,1
ペテル,62,2,3,2,2,1,2,0,2,5699,504508,1
ペテル,63,2,4,2,2,1,2,0,2,479607,984115,1
,,9779,4117,4801,9217,1259,6241,3445,3329,780000,,
