%YAML 1.1
%TAG !u! tag:unity3d.com,2011:
--- !u!1045 &1
EditorBuildSettings:
  m_ObjectHideFlags: 0
  serializedVersion: 2
  m_Scenes:
  - enabled: 0
    path: Assets/Scenes/Entry.unity
    guid: be2a23c0bc72e4f43b2fbd46e7565ac1
  - enabled: 1
    path: Assets/Scenes/Map.unity
    guid: cba3cc413561dff4e9ac9ab99938b7ab
  - enabled: 0
    path: Assets/Scenes/Battle.unity
    guid: c9456fa4e7c875941a9261dd3ad9f453
  - enabled: 0
    path: Assets/Scenes/EfkTest.unity
    guid: 9c2d0b33f3832fd49a3a7434bddaa520
