%YAML 1.1
%TAG !u! tag:unity3d.com,2011:
--- !u!114 &11400000
MonoBehaviour:
  m_ObjectHideFlags: 0
  m_PrefabParentObject: {fileID: 0}
  m_PrefabInternal: {fileID: 0}
  m_GameObject: {fileID: 0}
  m_Enabled: 1
  m_EditorHideFlags: 0
  m_Script: {fileID: 11500000, guid: 74e889193e22a9747940ed2cfe192e6e, type: 3}
  m_Name: Chapter1.chapter
  m_EditorClassIdentifier: 
  chapterName: 
  dataList:
  - {fileID: 11400000, guid: 51c768046a8fd4d4ba6f626ffcc16574, type: 2}
  settingList:
  - rows:
    - rowIndex: 0
      debugIndex: 0
      strings:
      - CharacterName
      - NameText
      - Pattern
      - Pivot
      - Scale
      - Conditional
      - ReadWrite
      - FileName
      - FileType
      isEmpty: 0
      isCommentOut: 0
      debugInfo: 
    - rowIndex: 1
      debugIndex: 1
      strings:
      - "\u3046\u305F\u3053"
      - "\u3046\u305F\u3053"
      - "\u901A\u5E38"
      - Bottom
      - 
      - 
      - 
      - Utako/utako.png
      isEmpty: 0
      isCommentOut: 0
      debugInfo: 
    name: Assets/Utage/SampleOthers/SampleChapter1.xls:Character
    type: 1
    textLength: 103
    headerRow: 0
  - rows:
    - rowIndex: 0
      debugIndex: 0
      strings:
      - Label
      - Type
      - Pivot
      - Scale
      - Conditional
      - ReadWrite
      - FileName
      - FileType
      - Thumbnail
      - CgCategolly
      isEmpty: 0
      isCommentOut: 0
      debugInfo: 
    - rowIndex: 1
      debugIndex: 1
      strings:
      - "\u80CC\u666F\u305D\u306E1"
      - Bg
      - 
      - 
      - 
      - 
      - TutorialBg1.png
      isEmpty: 0
      isCommentOut: 0
      debugInfo: 
    name: Assets/Utage/SampleOthers/SampleChapter1.xls:Texture
    type: 1
    textLength: 97
    headerRow: 0
  - rows:
    - rowIndex: 0
      debugIndex: 0
      strings:
      - Label
      - Title
      - Type
      - FileName
      - Streaming
      isEmpty: 0
      isCommentOut: 0
      debugInfo: 
    - rowIndex: 1
      debugIndex: 1
      strings:
      - "BGM\u305D\u306E1"
      - "\u30E1\u30A4\u30F3\u30C6\u30FC\u30DE"
      - Bgm
      - MainTheme.wav
      - TRUE
      isEmpty: 0
      isCommentOut: 0
      debugInfo: 
    name: Assets/Utage/SampleOthers/SampleChapter1.xls:Sound
    type: 1
    textLength: 63
    headerRow: 0
  - rows:
    - rowIndex: 0
      debugIndex: 0
      strings:
      - LayerName
      - Type
      - X
      - Y
      - Order
      isEmpty: 0
      isCommentOut: 0
      debugInfo: 
    - rowIndex: 1
      debugIndex: 1
      strings:
      - "\u30AD\u30E3\u30E9\u4E2D\u592E"
      - Character
      - 0
      - -350
      - 200
      isEmpty: 0
      isCommentOut: 0
      debugInfo: 
    name: Assets/Utage/SampleOthers/SampleChapter1.xls:Layer
    type: 1
    textLength: 42
    headerRow: 0
  - rows:
    - rowIndex: 0
      debugIndex: 0
      strings:
      - Label
      - Type
      - Value
      - FileType
      isEmpty: 0
      isCommentOut: 0
      debugInfo: 
    name: Assets/Utage/SampleOthers/SampleChapter1.xls:Param
    type: 1
    textLength: 22
    headerRow: 0
  - rows:
    - rowIndex: 0
      debugIndex: 0
      strings:
      - Name
      isEmpty: 0
      isCommentOut: 0
      debugInfo: 
    - rowIndex: 1
      debugIndex: 1
      strings:
      - Type
      isEmpty: 0
      isCommentOut: 0
      debugInfo: 
    - rowIndex: 2
      debugIndex: 2
      strings:
      - FileType
      isEmpty: 0
      isCommentOut: 0
      debugInfo: 
    name: Assets/Utage/SampleOthers/SampleChapter1.xls:ParamTbl{}
    type: 1
    textLength: 16
    headerRow: 0
  - rows:
    - rowIndex: 0
      debugIndex: 0
      strings:
      - ScenarioLabel
      - Title
      - Thumbnail
      isEmpty: 0
      isCommentOut: 0
      debugInfo: 
    name: Assets/Utage/SampleOthers/SampleChapter1.xls:SceneGallery
    type: 1
    textLength: 27
    headerRow: 0
  - rows:
    - rowIndex: 0
      debugIndex: 0
      strings:
      - Key
      isEmpty: 0
      isCommentOut: 0
      debugInfo: 
    name: Assets/Utage/SampleOthers/SampleChapter1.xls:Localize
    type: 1
    textLength: 3
    headerRow: 0
