%YAML 1.1
%TAG !u! tag:unity3d.com,2011:
--- !u!114 &11400000
MonoBehaviour:
  m_ObjectHideFlags: 0
  m_PrefabParentObject: {fileID: 0}
  m_PrefabInternal: {fileID: 0}
  m_GameObject: {fileID: 0}
  m_Enabled: 1
  m_EditorHideFlags: 0
  m_Script: {fileID: 11500000, guid: c10c0be6d28fe4d539c4a39822fe301c, type: 3}
  m_Name: Whip_R_T_1
  m_EditorClassIdentifier: 
  m_ApiVersion: 3
  m_Sprite: {fileID: 21300106, guid: 5f3de904a45ad0f459f265b57a49d4a4, type: 3}
  m_SharedMesh: {fileID: 43671709380073636}
  m_SharedMaterials:
  - {fileID: 21071651844716052}
  pivotPoint: {x: 0, y: 0}
  texVertices: []
  edges: []
  holes: []
  indices: 
  bindPoses: []
--- !u!21 &21071651844716052
Material:
  serializedVersion: 6
  m_ObjectHideFlags: 1
  m_PrefabParentObject: {fileID: 0}
  m_PrefabInternal: {fileID: 0}
  m_Name: Whip_R_T_1_0
  m_Shader: {fileID: 10753, guid: 0000000000000000f000000000000000, type: 0}
  m_ShaderKeywords: 
  m_LightmapFlags: 4
  m_EnableInstancingVariants: 0
  m_DoubleSidedGI: 0
  m_CustomRenderQueue: -1
  stringTagMap: {}
  disabledShaderPasses: []
  m_SavedProperties:
    serializedVersion: 3
    m_TexEnvs:
    - _AlphaTex:
        m_Texture: {fileID: 0}
        m_Scale: {x: 1, y: 1}
        m_Offset: {x: 0, y: 0}
    - _MainTex:
        m_Texture: {fileID: 2800000, guid: 5f3de904a45ad0f459f265b57a49d4a4, type: 3}
        m_Scale: {x: 1, y: 1}
        m_Offset: {x: 0, y: 0}
    m_Floats:
    - PixelSnap: 0
    - _EnableExternalAlpha: 0
    m_Colors:
    - _Color: {r: 1, g: 1, b: 1, a: 1}
    - _Flip: {r: 1, g: 1, b: 1, a: 1}
    - _RendererColor: {r: 1, g: 1, b: 1, a: 1}
--- !u!43 &43671709380073636
Mesh:
  m_ObjectHideFlags: 1
  m_PrefabParentObject: {fileID: 0}
  m_PrefabInternal: {fileID: 0}
  m_Name: Whip_R_T_1
  serializedVersion: 8
  m_SubMeshes:
  - serializedVersion: 2
    firstByte: 0
    indexCount: 27
    topology: 0
    firstVertex: 0
    vertexCount: 11
    localAABB:
      m_Center: {x: -0.08500001, y: 0, z: 0}
      m_Extent: {x: 0.79999995, y: 0.705, z: 0}
  m_Shapes:
    vertices: []
    shapes: []
    channels: []
    fullWeights: []
  m_BindPose:
  - e00: -0.41190773
    e01: -0.34563166
    e02: 0
    e03: 0.48729435
    e10: 0.34563166
    e11: -0.41190773
    e12: 0
    e13: 0.0429777
    e20: 0
    e21: 0
    e22: 0.53770727
    e23: 0
    e30: 0
    e31: 0
    e32: 0
    e33: 1
  m_BoneNameHashes: 
  m_RootBoneNameHash: 0
  m_MeshCompression: 0
  m_IsReadable: 1
  m_KeepVertices: 1
  m_KeepIndices: 1
  m_IndexBuffer: 05000700060005000400070008000400030008000700040003000200090001000900020008000300090000000a000100090001000a00
  m_Skin:
  - weight[0]: 1
    weight[1]: 0
    weight[2]: 0
    weight[3]: 0
    boneIndex[0]: 0
    boneIndex[1]: 0
    boneIndex[2]: 0
    boneIndex[3]: 0
  - weight[0]: 1
    weight[1]: 0
    weight[2]: 0
    weight[3]: 0
    boneIndex[0]: 0
    boneIndex[1]: 0
    boneIndex[2]: 0
    boneIndex[3]: 0
  - weight[0]: 1
    weight[1]: 0
    weight[2]: 0
    weight[3]: 0
    boneIndex[0]: 0
    boneIndex[1]: 0
    boneIndex[2]: 0
    boneIndex[3]: 0
  - weight[0]: 1
    weight[1]: 0
    weight[2]: 0
    weight[3]: 0
    boneIndex[0]: 0
    boneIndex[1]: 0
    boneIndex[2]: 0
    boneIndex[3]: 0
  - weight[0]: 1
    weight[1]: 0
    weight[2]: 0
    weight[3]: 0
    boneIndex[0]: 0
    boneIndex[1]: 0
    boneIndex[2]: 0
    boneIndex[3]: 0
  - weight[0]: 1
    weight[1]: 0
    weight[2]: 0
    weight[3]: 0
    boneIndex[0]: 0
    boneIndex[1]: 0
    boneIndex[2]: 0
    boneIndex[3]: 0
  - weight[0]: 1
    weight[1]: 0
    weight[2]: 0
    weight[3]: 0
    boneIndex[0]: 0
    boneIndex[1]: 0
    boneIndex[2]: 0
    boneIndex[3]: 0
  - weight[0]: 1
    weight[1]: 0
    weight[2]: 0
    weight[3]: 0
    boneIndex[0]: 0
    boneIndex[1]: 0
    boneIndex[2]: 0
    boneIndex[3]: 0
  - weight[0]: 1
    weight[1]: 0
    weight[2]: 0
    weight[3]: 0
    boneIndex[0]: 0
    boneIndex[1]: 0
    boneIndex[2]: 0
    boneIndex[3]: 0
  - weight[0]: 1
    weight[1]: 0
    weight[2]: 0
    weight[3]: 0
    boneIndex[0]: 0
    boneIndex[1]: 0
    boneIndex[2]: 0
    boneIndex[3]: 0
  - weight[0]: 1
    weight[1]: 0
    weight[2]: 0
    weight[3]: 0
    boneIndex[0]: 0
    boneIndex[1]: 0
    boneIndex[2]: 0
    boneIndex[3]: 0
  m_VertexData:
    m_CurrentChannels: 11
    m_VertexCount: 11
    m_Channels:
    - stream: 0
      offset: 0
      format: 0
      dimension: 3
    - stream: 0
      offset: 12
      format: 0
      dimension: 3
    - stream: 0
      offset: 0
      format: 0
      dimension: 0
    - stream: 1
      offset: 0
      format: 0
      dimension: 2
    - stream: 0
      offset: 0
      format: 0
      dimension: 0
    - stream: 0
      offset: 0
      format: 0
      dimension: 0
    - stream: 0
      offset: 0
      format: 0
      dimension: 0
    - stream: 0
      offset: 0
      format: 0
      dimension: 0
    m_DataSize: 360
    _typelessdata: 295c2f3fe17a343f000000000000000000000000000080bfae47013fe17a343f000000000000000000000000000080bf3d0a973e14ae273f000000000000000000000000000080bf3333f3beec51383d000000000000000000000000000080bf5c8f62bf0ad7e3be000000000000000000000000000080bf5c8f62bf000020bf000000000000000000000000000080bfec5158bfe17a34bf000000000000000000000000000080bfa4701dbfe17a34bf000000000000000000000000000080bfb81ec5bea4701dbf000000000000000000000000000080bf3d0a373fa470fd3e000000000000000000000000000080bf3d0a373fcdcc2c3f000000000000000000000000000080bf00000000000000000000553f00c0a93e00c0523f00c0a93e0020503f0080a83e0080463f0040993e0060413f00008d3e0060413f0080883e00e0413f0080863e00c0443f0080863e00a0473f00c0883e0060553f0080a43e0060553f0000a93e
  m_CompressedMesh:
    m_Vertices:
      m_NumItems: 0
      m_Range: 0
      m_Start: 0
      m_Data: 
      m_BitSize: 0
    m_UV:
      m_NumItems: 0
      m_Range: 0
      m_Start: 0
      m_Data: 
      m_BitSize: 0
    m_Normals:
      m_NumItems: 0
      m_Range: 0
      m_Start: 0
      m_Data: 
      m_BitSize: 0
    m_Tangents:
      m_NumItems: 0
      m_Range: 0
      m_Start: 0
      m_Data: 
      m_BitSize: 0
    m_Weights:
      m_NumItems: 0
      m_Data: 
      m_BitSize: 0
    m_NormalSigns:
      m_NumItems: 0
      m_Data: 
      m_BitSize: 0
    m_TangentSigns:
      m_NumItems: 0
      m_Data: 
      m_BitSize: 0
    m_FloatColors:
      m_NumItems: 0
      m_Range: 0
      m_Start: 0
      m_Data: 
      m_BitSize: 0
    m_BoneIndices:
      m_NumItems: 0
      m_Data: 
      m_BitSize: 0
    m_Triangles:
      m_NumItems: 0
      m_Data: 
      m_BitSize: 0
    m_UVInfo: 0
  m_LocalAABB:
    m_Center: {x: -0.08500001, y: 0, z: 0}
    m_Extent: {x: 0.79999995, y: 0.705, z: 0}
  m_MeshUsageFlags: 0
  m_BakedConvexCollisionMesh: 
  m_BakedTriangleCollisionMesh: 
  m_MeshOptimized: 0
--- !u!114 &114865924018195834
MonoBehaviour:
  m_ObjectHideFlags: 1
  m_PrefabParentObject: {fileID: 0}
  m_PrefabInternal: {fileID: 0}
  m_GameObject: {fileID: 0}
  m_Enabled: 1
  m_EditorHideFlags: 0
  m_Script: {fileID: 11500000, guid: 9e715ea371f114f4a8d2584ad476634d, type: 3}
  m_Name: texture_00_53_Data
  m_EditorClassIdentifier: 
  m_PivotPoint: {x: 1635.5, y: 608.5}
  m_Vertices:
  - {x: 1704, y: 679}
  - {x: 1686, y: 679}
  - {x: 1665, y: 674}
  - {x: 1588, y: 613}
  - {x: 1547, y: 564}
  - {x: 1547, y: 546}
  - {x: 1551, y: 538}
  - {x: 1574, y: 538}
  - {x: 1597, y: 547}
  - {x: 1707, y: 658}
  - {x: 1707, y: 676}
  m_BoneWeights:
  - weight0: 1
    weight1: 0
    weight2: 0
    weight3: 0
    boneIndex0: 0
    boneIndex1: -1
    boneIndex2: -1
    boneIndex3: -1
  - weight0: 1
    weight1: 0
    weight2: 0
    weight3: 0
    boneIndex0: 0
    boneIndex1: -1
    boneIndex2: -1
    boneIndex3: -1
  - weight0: 1
    weight1: 0
    weight2: 0
    weight3: 0
    boneIndex0: 0
    boneIndex1: -1
    boneIndex2: -1
    boneIndex3: -1
  - weight0: 1
    weight1: 0
    weight2: 0
    weight3: 0
    boneIndex0: 0
    boneIndex1: -1
    boneIndex2: -1
    boneIndex3: -1
  - weight0: 1
    weight1: 0
    weight2: 0
    weight3: 0
    boneIndex0: 0
    boneIndex1: -1
    boneIndex2: -1
    boneIndex3: -1
  - weight0: 1
    weight1: 0
    weight2: 0
    weight3: 0
    boneIndex0: 0
    boneIndex1: -1
    boneIndex2: -1
    boneIndex3: -1
  - weight0: 1
    weight1: 0
    weight2: 0
    weight3: 0
    boneIndex0: 0
    boneIndex1: -1
    boneIndex2: -1
    boneIndex3: -1
  - weight0: 1
    weight1: 0
    weight2: 0
    weight3: 0
    boneIndex0: 0
    boneIndex1: -1
    boneIndex2: -1
    boneIndex3: -1
  - weight0: 1
    weight1: 0
    weight2: 0
    weight3: 0
    boneIndex0: 0
    boneIndex1: -1
    boneIndex2: -1
    boneIndex3: -1
  - weight0: 1
    weight1: 0
    weight2: 0
    weight3: 0
    boneIndex0: 0
    boneIndex1: -1
    boneIndex2: -1
    boneIndex3: -1
  - weight0: 1
    weight1: 0
    weight2: 0
    weight3: 0
    boneIndex0: 0
    boneIndex1: -1
    boneIndex2: -1
    boneIndex3: -1
  m_Edges:
  - index1: 0
    index2: 1
  - index1: 1
    index2: 2
  - index1: 2
    index2: 3
  - index1: 3
    index2: 4
  - index1: 4
    index2: 5
  - index1: 5
    index2: 6
  - index1: 6
    index2: 7
  - index1: 7
    index2: 8
  - index1: 8
    index2: 9
  - index1: 9
    index2: 10
  - index1: 10
    index2: 0
  m_Holes: []
  m_Indices: 050000000700000006000000050000000400000007000000080000000400000003000000080000000700000004000000030000000200000009000000010000000900000002000000080000000300000009000000000000000a0000000100000009000000010000000a000000
  m_BindPoses:
  - bindPose:
      e00: -0.41190773
      e01: -0.34563166
      e02: 0
      e03: 0.48729435
      e10: 0.34563166
      e11: -0.41190773
      e12: 0
      e13: 0.0429777
      e20: 0
      e21: 0
      e22: 0.53770727
      e23: 0
      e30: 0
      e31: 0
      e32: 0
      e33: 1
    boneLength: 1.0000004
    path: Whip_R_T_1
    name: Whip_R_T_1
    color: {r: 1, g: 0, b: 0, a: 1}
    zOrder: 0
  m_Blendshapes: []
